{
    "version": "1.0.0",
    "configurations": [
        {
            "name": "LaunchName",
            "type": "python",
            "request": "launch",
            "program": "${file}",
            "console": "integratedTerminal",
            "args": [],
            "env": {}
        }
    ]
}
